<svg xmlns="http://www.w3.org/2000/svg" width="10.526" height="19.653" viewBox="0 0 10.526 19.653">
  <g id="fb" transform="translate(-10.357 -8.321)">
    <path id="Icon_awesome-facebook-f" data-name="Icon awesome-facebook-f" d="M11.446,11.055,11.992,7.5H8.579V5.19a1.778,1.778,0,0,1,2.005-1.922h1.552V.24A18.921,18.921,0,0,0,9.381,0C6.571,0,4.734,1.7,4.734,4.787V7.5H1.609v3.557H4.734v8.6H8.579v-8.6Z" transform="translate(8.748 8.321)" fill="#fff"/>
  </g>
</svg>
