<svg xmlns="http://www.w3.org/2000/svg" width="12" height="12.243" viewBox="0 0 12 12.243">
  <path id="pic_arrow_l" d="M-5601.5-4166.012l-5.249-5.245a.874.874,0,0,1-.025-1.207l5.271-5.282a.879.879,0,0,1,.62-.255.876.876,0,0,1,.62.255.873.873,0,0,1,0,1.237l-4.629,4.632,4.634,4.629a.871.871,0,0,1,0,1.235.882.882,0,0,1-.621.254A.878.878,0,0,1-5601.5-4166.012Zm-5,0-5.249-5.245a.874.874,0,0,1-.025-1.207l5.271-5.282a.879.879,0,0,1,.62-.255.876.876,0,0,1,.62.255.873.873,0,0,1,0,1.237l-4.629,4.632,4.634,4.629a.871.871,0,0,1,0,1.235.882.882,0,0,1-.621.254A.878.878,0,0,1-5606.5-4166.012Z" transform="translate(5612 4178)" fill="#fff"/>
</svg>
