<svg xmlns="http://www.w3.org/2000/svg" width="20" height="20" viewBox="0 0 20 20">
  <path id="ic_close_24px" d="M25,7.014,22.986,5,15,12.986,7.014,5,5,7.014,12.986,15,5,22.986,7.014,25,15,17.014,22.986,25,25,22.986,17.014,15Z" transform="translate(-5 -5)" fill="#fff"/>
</svg>
