<svg xmlns="http://www.w3.org/2000/svg" width="13" height="13" viewBox="0 0 13 13">
  <path id="staricon" d="M52.738,43.208l3.822.586a.41.41,0,0,1,.213.69L54,47.306a.417.417,0,0,0-.111.358l.649,3.99a.39.39,0,0,1-.561.426l-3.417-1.887a.371.371,0,0,0-.359,0l-3.421,1.879a.39.39,0,0,1-.56-.428l.657-3.988a.416.416,0,0,0-.111-.358l-2.763-2.828a.41.41,0,0,1,.215-.69l3.823-.578a.388.388,0,0,0,.291-.221l1.713-3.627a.379.379,0,0,1,.693,0l1.706,3.632A.385.385,0,0,0,52.738,43.208Z" transform="translate(-43.891 -39.128)" fill="#ffffff"/>
</svg>
