<svg id="l_btn_d" xmlns="http://www.w3.org/2000/svg" width="8" height="12.956" viewBox="0 0 8 12.956">
  <path id="ic_chevron_right_24px" d="M1.522,0,0,1.522,4.945,6.478,0,11.433l1.522,1.522L8,6.478Z" transform="translate(8 12.955) rotate(180)" fill="#c1c6c9"/>
</svg>
