<svg xmlns="http://www.w3.org/2000/svg" width="10" height="17" viewBox="0 0 10 17">
  <path id="moon" d="M8.308,2A6.959,6.959,0,0,0,6,2.391,8.442,8.442,0,0,1,11.385,10.5,8.442,8.442,0,0,1,6,18.609,6.959,6.959,0,0,0,8.308,19C12.554,19,16,15.192,16,10.5S12.554,2,8.308,2Z" transform="translate(-6 -2)"/>
</svg>
