<svg xmlns="http://www.w3.org/2000/svg" xmlns:xlink="http://www.w3.org/1999/xlink" width="19" height="19" viewBox="0 0 19 19">
  <defs>
    <clipPath id="clip-path">
      <rect id="Rectangle_1364" data-name="Rectangle 1364" width="19" height="19" transform="translate(-0.493 -0.296)" fill="#c1c6c9"/>
    </clipPath>
  </defs>
  <g id="night_ic_calendar_19x19" transform="translate(0.493 0.296)">
    <g id="Group_866" data-name="Group 866" transform="translate(0 0)" clip-path="url(#clip-path)">
      <path id="Path_116" data-name="Path 116" d="M0,16.823V2.62a.491.491,0,0,0,.035-.084,1.722,1.722,0,0,1,1.7-1.391c.492,0,.984,0,1.476,0a.354.354,0,0,0,.217-.03C3.447.7,3.317.207,3.874,0H4.14a.614.614,0,0,1,.441.686,1.74,1.74,0,0,0,.014.445h9.131c0-.157.005-.3,0-.446A.608.608,0,0,1,14.166,0h.266a.609.609,0,0,1,.443.682c-.006.149,0,.3,0,.462H15.1c.5,0,1-.006,1.5,0a1.682,1.682,0,0,1,1.655,1.3c.015.059,0,.129.05.178v14.2a.921.921,0,0,0-.036.1,1.656,1.656,0,0,1-1.231,1.319c-.071.021-.153,0-.215.058H1.482c-.033-.037-.08-.029-.122-.039A1.661,1.661,0,0,1,.05,17c-.016-.059,0-.128-.049-.178M1.144,5.733v.21q0,5.259,0,10.519c0,.509.19.7.7.7h14.62c.507,0,.7-.191.7-.7q0-5.259,0-10.519c0-.067.022-.139-.029-.205Zm0-1.173H17.161c0-.556,0-1.094,0-1.631a.565.565,0,0,0-.643-.642c-.494,0-.987,0-1.481,0a.2.2,0,0,0-.163.041c0,.091,0,.2,0,.3a2.9,2.9,0,0,1-.017.341.5.5,0,0,1-.483.452.537.537,0,0,1-.641-.551c-.011-.188,0-.376,0-.575H4.565c0,.231.015.452,0,.67a.492.492,0,0,1-.478.456.546.546,0,0,1-.65-.565,3.085,3.085,0,0,0-.025-.567c-.586,0-1.161-.013-1.735.005a.5.5,0,0,0-.523.537c-.012.569,0,1.138,0,1.726" transform="translate(0.4 0.11)" fill="#c1c6c9"/>
      <path id="Path_117" data-name="Path 117" d="M198.943,188.16c.348,0,.7,0,1.043,0,.45,0,.654.2.656.648q.005,1.071,0,2.143c0,.438-.2.644-.637.647q-1.081.008-2.162,0c-.435,0-.635-.209-.637-.647q-.005-1.071,0-2.143c0-.445.205-.643.656-.647.36,0,.721,0,1.081,0m.555,2.281v-.731c0-.405,0-.405-.407-.405h-.728v1.136Z" transform="translate(-189.314 -180.904)" fill="#c1c6c9"/>
      <path id="Path_118" data-name="Path 118" d="M317.853,189.8c0-.367,0-.733,0-1.1a.533.533,0,0,1,.582-.6q1.128-.015,2.256,0a.539.539,0,0,1,.585.615q0,1.1,0,2.2a.544.544,0,0,1-.6.618q-1.109.013-2.218,0a.544.544,0,0,1-.6-.616c0-.373,0-.746,0-1.119m2.27-.54H319v1.119h1.119Z" transform="translate(-305.38 -180.839)" fill="#c1c6c9"/>
      <path id="Path_119" data-name="Path 119" d="M76.9,189.8c0-.367,0-.733,0-1.1a.534.534,0,0,1,.576-.6q1.137-.017,2.275,0a.534.534,0,0,1,.573.607q0,1.109,0,2.218a.532.532,0,0,1-.576.6q-1.137.018-2.275,0a.534.534,0,0,1-.573-.607c0-.373,0-.746,0-1.119m2.275-.548H78.048v1.121h1.125Z" transform="translate(-73.576 -180.835)" fill="#c1c6c9"/>
      <path id="Path_120" data-name="Path 120" d="M198.881,327.263c-.373,0-.746,0-1.119,0a.535.535,0,0,1-.6-.584q-.014-1.128,0-2.256a.532.532,0,0,1,.6-.584q1.119-.007,2.237,0a.533.533,0,0,1,.6.583q.014,1.128,0,2.256a.535.535,0,0,1-.6.585c-.373,0-.746,0-1.119,0m.556-2.274h-1.117v1.125h1.117Z" transform="translate(-189.27 -311.428)" fill="#c1c6c9"/>
      <path id="Path_121" data-name="Path 121" d="M80.308,325.567c0,.373,0,.747,0,1.12a.528.528,0,0,1-.577.581q-1.139.008-2.278,0a.524.524,0,0,1-.567-.573q-.007-1.139,0-2.278a.523.523,0,0,1,.568-.57q1.149-.008,2.3,0a.519.519,0,0,1,.556.562c.006.386,0,.772,0,1.158m-2.279.549h1.124V325H78.028Z" transform="translate(-73.561 -311.434)" fill="#c1c6c9"/>
      <path id="Path_122" data-name="Path 122" d="M317.855,325.543c0-.373,0-.747,0-1.12a.527.527,0,0,1,.576-.581q1.139-.008,2.278,0a.523.523,0,0,1,.567.571q.007,1.139,0,2.278a.523.523,0,0,1-.567.572q-1.149.009-2.3,0a.521.521,0,0,1-.557-.562c-.006-.386,0-.772,0-1.158m1.15.567h1.118v-1.118h-1.118Z" transform="translate(-305.382 -311.431)" fill="#c1c6c9"/>
    </g>
  </g>
</svg>
