<svg xmlns="http://www.w3.org/2000/svg" width="13.481" height="11.589" viewBox="0 0 13.481 11.589">
  <path id="iconmonstr-arrow-32" d="M5.631,4H9.01l4.472,5.794L9.01,15.589H5.631L10.1,9.794ZM0,15.589H3.379L7.851,9.794,3.379,4H0L4.472,9.794Z" transform="translate(0 -4)" fill="#011ca2"/>
</svg>
