<svg id="arrowLeft" xmlns="http://www.w3.org/2000/svg" width="56" height="56" viewBox="0 0 56 56">
  <circle id="Ellipse_21" data-name="Ellipse 21" cx="27.5" cy="27.5" r="27.5" transform="translate(1 1)" fill="#15244d"/>
  <path id="Path_123" data-name="Path 123" d="M25.2,34.9l6.2-5.7h-13v-2h13l-6.2-5.7L26.6,20l8.8,8.2-8.8,8.2Z" transform="translate(2.2)" fill="#fff"/>
  <path id="Path_124" data-name="Path 124" d="M1,28H2A25.948,25.948,0,1,0,9.6,9.6,25.918,25.918,0,0,0,2,28H0A28,28,0,1,1,28,56,27.954,27.954,0,0,1,0,28Z" fill="#15244d"/>
</svg>
