<svg xmlns="http://www.w3.org/2000/svg" width="21.14" height="21.14" viewBox="0 0 21.14 21.14">
  <g id="copy" transform="translate(-7.298 -7.298)">
    <path id="ic_link_24px" d="M1.869,5.112A3.114,3.114,0,0,1,4.918,1.942H8.853V0H4.918A5.02,5.02,0,0,0,0,5.112a5.02,5.02,0,0,0,4.918,5.112H8.853V8.281H4.918A3.114,3.114,0,0,1,1.869,5.112ZM5.9,6.134h7.869V4.089H5.9ZM14.755,0H10.82V1.942h3.935A3.114,3.114,0,0,1,17.8,5.112a3.114,3.114,0,0,1-3.049,3.169H10.82v1.942h3.935a5.02,5.02,0,0,0,4.918-5.112A5.02,5.02,0,0,0,14.755,0Z" transform="translate(7.298 21.209) rotate(-45)" fill="#fff"/>
  </g>
</svg>
