<svg id="ic_chevron_right_7x12" xmlns="http://www.w3.org/2000/svg" width="7" height="12" viewBox="0 0 7 12">
  <path id="ic_chevron_right_24px" d="M9.922,6,8.59,7.41,12.917,12,8.59,16.59,9.922,18l5.668-6Z" transform="translate(-8.59 -6)" fill="#707070" opacity="0.499"/>
</svg>
