<svg xmlns="http://www.w3.org/2000/svg" width="16" height="16" viewBox="0 0 16 16">
  <g id="staricon" opacity="0.103">
    <path id="staricon-2" data-name="staricon" d="M54.78,44.149l4.7.722a.5.5,0,0,1,.262.85l-3.408,3.473a.513.513,0,0,0-.137.441l.8,4.91a.48.48,0,0,1-.69.524L52.1,52.746a.457.457,0,0,0-.442,0l-4.21,2.313a.48.48,0,0,1-.689-.526l.809-4.909a.512.512,0,0,0-.136-.441l-3.4-3.481a.5.5,0,0,1,.264-.849L49,44.141a.477.477,0,0,0,.358-.272L51.472,39.4a.466.466,0,0,1,.853,0l2.1,4.47A.473.473,0,0,0,54.78,44.149Z" transform="translate(-43.891 -39.128)" fill="#fff"/>
  </g>
</svg>
