<svg xmlns="http://www.w3.org/2000/svg" width="8.273" height="13.397" viewBox="0 0 8.273 13.397">
  <path id="ic_chevron_right_24px" d="M10.164,6,8.59,7.574,13.7,12.7,8.59,17.823,10.164,19.4l6.7-6.7Z" transform="translate(-8.59 -6)" fill="#2d9afc"/>
</svg>
