<svg xmlns="http://www.w3.org/2000/svg" xmlns:xlink="http://www.w3.org/1999/xlink" width="21.828" height="17.742" viewBox="0 0 21.828 17.742">
  <defs>
    <clipPath id="clip-path">
      <rect id="Rectangle_1417" data-name="Rectangle 1417" width="21.828" height="17.742" fill="#707070"/>
    </clipPath>
  </defs>
  <g id="ic_footermenu_news" transform="translate(-36.375 -15)">
    <g id="Group_1060" data-name="Group 1060" transform="translate(36.375 15)" opacity="0.597" clip-path="url(#clip-path)">
      <path id="Path_154" data-name="Path 154" d="M3.118,17.742a3.128,3.128,0,0,1-.76-.094A3.206,3.206,0,0,1,.175,15.643,3.4,3.4,0,0,1,0,14.457V4.94a.92.92,0,0,1,.911-.911H4.45V1.954c0-.036,0-.073,0-.109A2.659,2.659,0,0,1,4.5,1.2,1.624,1.624,0,0,1,6.056,0H20.244a1.6,1.6,0,0,1,1.583,1.581V16.109a1.62,1.62,0,0,1-.739,1.379,1.955,1.955,0,0,1-1.147.244H3.375c-.086.007-.172.011-.258.011M19.8,15.9l.147,0h.063c0-.32,0-.641,0-.953q0-.289,0-.579V1.821H6.259c0,.368,0,.738,0,1.1q0,.329,0,.657V4.856a.821.821,0,0,1,0,.083v8.154c0,.167,0,.335,0,.5,0,.33,0,.671,0,1.007a3.2,3.2,0,0,1-.281,1.3Zm-16.633,0,.164,0a2.208,2.208,0,0,0,.327-.092h0a1.859,1.859,0,0,0,.24-.138l.013-.009.016-.014a1.766,1.766,0,0,0,.131-.119c.037-.037.072-.075.111-.12l0,0,.026-.037a1.916,1.916,0,0,0,.148-.26,2.274,2.274,0,0,0,.093-.337c0-.054.008-.117.008-.18,0-.239,0-.483,0-.718q0-.182,0-.363V5.851H1.816c0,.1,0,.21,0,.315v7.588c0,.1,0,.2,0,.3a6.942,6.942,0,0,0,.014.742,1.92,1.92,0,0,0,.078.292,2.007,2.007,0,0,0,.15.27l.013.018.02.025c.036.043.073.084.109.12l.035.033c.035.032.067.062.1.088l0,0,.03.022a2.017,2.017,0,0,0,.263.147,2.119,2.119,0,0,0,.308.085Z" transform="translate(0 0)" fill="#707070"/>
      <path id="Path_155" data-name="Path 155" d="M22.13,2.1A1.394,1.394,0,0,0,20.754.728H6.574A1.4,1.4,0,0,0,5.22,1.763a3.04,3.04,0,0,0-.042.707V4.756H1.426a.707.707,0,0,0-.7.7v9.517A3.157,3.157,0,0,0,.89,16.083a2.992,2.992,0,0,0,2.035,1.874,2.926,2.926,0,0,0,.957.077H20.456a1.776,1.776,0,0,0,1.031-.209,1.418,1.418,0,0,0,.643-1.2V2.108h0v0m-1.4,14.538v0l-.019.014.02-.016M2.457,16.083l-.035-.048c.052.068.064.085.035.048M2.4,16l.009.012L2.4,16m.366.358-.045-.033h0c-.056-.042-.1-.089-.153-.136s-.085-.089-.128-.14l-.022-.026-.021-.029a2.241,2.241,0,0,1-.172-.31,2.125,2.125,0,0,1-.092-.344c-.033-.352-.012-.717-.012-1.071V6.681c0-.177,0-.352,0-.528H5.174v7.869c0,.362,0,.724,0,1.081,0,.07,0,.139-.01.208a2.5,2.5,0,0,1-.108.39,2.156,2.156,0,0,1-.167.3c-.013.019-.025.035-.039.054-.041.048-.082.093-.127.137s-.094.089-.145.132l-.018.016-.025.018a2.122,2.122,0,0,1-.271.157l-.014.006a2.422,2.422,0,0,1-.385.108l-.185,0h-.03v.009l-.045,0c-.051,0-.1,0-.154-.008a2.391,2.391,0,0,1-.388-.1,2.227,2.227,0,0,1-.3-.167m17.548.268H6.147a2.991,2.991,0,0,0,.419-1.512c0-.5,0-1,0-1.507V5.455a.66.66,0,0,0,0-.072V4.092c0-.655,0-1.31,0-1.966.12-.006.24,0,.358,0H19.026c.566,0,1.137,0,1.707,0V14.887c0,.579,0,1.154,0,1.733v.006l0,0h-.005c-.137.006-.277,0-.412,0" transform="translate(-0.515 -0.515)" fill="#707070"/>
      <path id="Path_156" data-name="Path 156" d="M30.8,16.224c-.027,0-.055,0-.084,0H28.3l-.539,0c-.2,0-.379,0-.543,0a1.4,1.4,0,0,1-1.239-.745,1.52,1.52,0,0,1-.162-.707V11.275a1.476,1.476,0,0,1,.345-.956,1.4,1.4,0,0,1,1.07-.482l.564,0h2.935a1.546,1.546,0,0,1,.453.05A1.4,1.4,0,0,1,32.2,11.222c0,.119,0,.236,0,.349v.006c0,.056,0,.113,0,.169v2.946c0,.011,0,.022,0,.033,0,.037,0,.08,0,.129a1.407,1.407,0,0,1-1.372,1.369H30.8m-.7-4.271H27.931v2.165H30.1Z" transform="translate(-18.265 -6.959)" fill="#707070"/>
      <path id="Path_157" data-name="Path 157" d="M31.313,16.526c-.024,0-.048,0-.074,0H28.812l-.538,0c-.2,0-.379,0-.54,0a1.186,1.186,0,0,1-1.051-.627,1.315,1.315,0,0,1-.139-.612V11.791a1.268,1.268,0,0,1,.3-.821,1.189,1.189,0,0,1,.908-.4l.561,0h2.935a1.351,1.351,0,0,1,.393.042,1.192,1.192,0,0,1,.866,1.135c0,.117,0,.235,0,.349q0,.085,0,.17v2.946c0,.013,0,.025,0,.039,0,.034,0,.072,0,.113a1.2,1.2,0,0,1-1.167,1.166h-.023m-.489-4.271H28.233v2.591h2.591Z" transform="translate(-18.78 -7.474)" fill="#707070"/>
      <path id="Path_158" data-name="Path 158" d="M35.525,37.74l-.4,0-.395,0H26.1a.877.877,0,0,1-.862-.853.806.806,0,0,1,.232-.6.879.879,0,0,1,.63-.276h.016c.116,0,.247,0,.4,0l.4,0,.395,0h8.63a.876.876,0,0,1,.862.853.807.807,0,0,1-.232.6.881.881,0,0,1-.631.276h-.014c-.119,0-.25,0-.4,0" transform="translate(-17.858 -25.477)" fill="#707070"/>
      <path id="Path_159" data-name="Path 159" d="M36.452,36.74h-8.63c-.4,0-.793-.008-1.189,0h-.016a.655.655,0,0,0-.65.65.663.663,0,0,0,.65.65h8.63c.4,0,.793.008,1.189,0h.016a.65.65,0,0,0,0-1.3" transform="translate(-18.373 -25.992)" fill="#707070"/>
      <path id="Path_160" data-name="Path 160" d="M35.525,46.507l-.4,0-.395,0H26.1a.877.877,0,0,1-.862-.853.806.806,0,0,1,.232-.6.879.879,0,0,1,.63-.276h.014c.119,0,.25,0,.4,0l.4,0,.395,0h8.63a.876.876,0,0,1,.862.853.807.807,0,0,1-.232.6.88.88,0,0,1-.631.276h-.016c-.116,0-.247,0-.4,0" transform="translate(-17.858 -31.68)" fill="#707070"/>
      <path id="Path_161" data-name="Path 161" d="M36.452,45.506h-8.63c-.4,0-.793-.008-1.189,0h-.016a.655.655,0,0,0-.65.65.666.666,0,0,0,.65.65h8.63c.4,0,.793.008,1.189,0h.016a.65.65,0,0,0,0-1.3" transform="translate(-18.373 -32.195)" fill="#707070"/>
    </g>
  </g>
</svg>
