<svg xmlns="http://www.w3.org/2000/svg" xmlns:xlink="http://www.w3.org/1999/xlink" width="19" height="19" viewBox="0 0 19 19">
  <defs>
    <clipPath id="clip-path">
      <rect id="Rectangle_1507" data-name="Rectangle 1507" width="19" height="19" fill="none" />
    </clipPath>
  </defs>
  <g id="ic__trophy_19x19" data-name="ic_ trophy_19x19" clip-path="url(#clip-path)">
    <path id="Path_298" data-name="Path 298" d="M12.427,4.5l-1.7-.247L9.961,2.708a.557.557,0,0,0-1,0L8.2,4.253,6.5,4.5h0a.557.557,0,0,0-.308.95l1.233,1.2-.292,1.7a.557.557,0,0,0,.808.586l1.524-.8,1.524.8h0a.557.557,0,0,0,.807-.586l-.292-1.7,1.233-1.2h0a.557.557,0,0,0-.308-.949ZM10.516,6.058a.558.558,0,0,0-.16.493l.15.874L9.72,7.012h0a.556.556,0,0,0-.517,0l-.785.412.15-.874a.556.556,0,0,0-.16-.493l-.634-.618.877-.128a.555.555,0,0,0,.419-.3l.393-.8.392.8a.556.556,0,0,0,.42.3l.878.128Zm4.326,1.809h.186A3.958,3.958,0,0,0,19,3.97,1.672,1.672,0,0,0,17.328,2.3H15.414L15.581.611h0A.556.556,0,0,0,15.027,0H3.9a.557.557,0,0,0-.554.611L3.509,2.3H1.669A1.672,1.672,0,0,0,0,3.97a3.9,3.9,0,0,0,3.9,3.9h.186a5.478,5.478,0,0,0,3.685,4.184,1.673,1.673,0,0,1-1.644,1.381.557.557,0,0,0-.558.557v1.67H5.009A1.671,1.671,0,0,0,3.34,17.328v1.114A.556.556,0,0,0,3.9,19H15.027a.556.556,0,0,0,.556-.556V17.328a1.671,1.671,0,0,0-1.669-1.669h-.556v-1.67h0a.557.557,0,0,0-.557-.557,1.671,1.671,0,0,1-1.644-1.381,5.48,5.48,0,0,0,3.684-4.184ZM15.3,3.414h2.024a.557.557,0,0,1,.556.556,2.858,2.858,0,0,1-2.857,2.783h-.054L15.3,3.414ZM3.9,6.753A2.786,2.786,0,0,1,1.113,3.97a.557.557,0,0,1,.556-.556h1.95L3.95,6.753ZM13.915,16.772h0a.558.558,0,0,1,.557.556v.557H4.452v-.557a.558.558,0,0,1,.557-.556Zm-1.67-2.226v1.113H6.679V14.546Zm-3.9-1.114a2.767,2.767,0,0,0,.5-1.113h1.225a2.783,2.783,0,0,0,.5,1.113Zm1.115-2.226h0A4.349,4.349,0,0,1,5.118,7.254s0,0,0,0L4.511,1.113h9.9S13.8,7.294,13.8,7.294h0a4.35,4.35,0,0,1-4.339,3.913Z" transform="translate(0.002 0.002)" fill="#c1c6c9" fill-rule="evenodd" />
  </g>
</svg>