<svg xmlns="http://www.w3.org/2000/svg" width="8" height="4" viewBox="0 0 8 4">
  <g id="Group_94" data-name="Group 94" transform="translate(2234.917 310.809) rotate(90)">
    <path id="Union_3" data-name="Union 3" d="M0,0H4V8H0Z" transform="translate(-310.809 2226.917)" fill="#e51937"/>
  </g>
</svg>
