<svg id="copy" xmlns="http://www.w3.org/2000/svg" width="36" height="36" viewBox="0 0 36 36">
  <rect id="矩形_57" data-name="矩形 57" width="36" height="36" rx="18" transform="translate(0 0)" fill="#029d8b"/>
  <path id="ic_link_24px" d="M1.869,5.112A3.114,3.114,0,0,1,4.918,1.942H8.853V0H4.918A5.02,5.02,0,0,0,0,5.112a5.02,5.02,0,0,0,4.918,5.112H8.853V8.281H4.918A3.114,3.114,0,0,1,1.869,5.112ZM5.9,6.134h7.869V4.089H5.9ZM14.755,0H10.82V1.942h3.935A3.114,3.114,0,0,1,17.8,5.112a3.114,3.114,0,0,1-3.049,3.169H10.82v1.942h3.935a5.02,5.02,0,0,0,4.918-5.112A5.02,5.02,0,0,0,14.755,0Z" transform="translate(7.298 21.209) rotate(-45)" fill="#fff"/>
</svg>
