<svg id="time" xmlns="http://www.w3.org/2000/svg" width="46.6" height="39.12" viewBox="0 0 46.6 39.12">
  <path id="Path_55" data-name="Path 55" d="M0,0H46.6V26L23.3,39.12,0,26Z" fill="#2d9afc"/>
</svg>
